﻿["Esc",{x:1},"F1","F2","F3","F4",{x:0.5},"F5","F6","F7","F8",{x:0.5},"F9","F10","F11","F12",{x:0.25},"PrtSc","Scroll Lock","Pause\nBreak"],
[{y:0.5,t:"#000000\n\n\n\n\n\n\n#ff0000\n\n#ff00ff\n#0000ff",f:6,fa:[0,0,0,0,0,0,0,2,0,0,2]},"\n\n\n\n\n\n\n5\n\n6\n1",{t:"#ff0000",a:7},"5","3","3","4","4",{t:"#ff0000\n\n\n\n\n\n\n\n\n#ff00ff\n#0000ff",a:4,fa:[0,0,0,0,0,0,2,2,0,0,2]},"\n\n\n\n\n\n4\n\n\n6\n2",{t:"#ff0000",a:7},"5","3","4","5","4",{t:"#ff0000\n\n\n\n\n\n\n\n\n#ff00ff\n#0000ff",a:4},"\n\n\n\n\n\n4\n\n\n5\n1",{c:"#888888",t:"#ff0000",a:7,w:2},"",{x:0.25,c:"#cccccc",t:"#000000",a:4,f:3},"Insert","Home","PgUp",{x:0.25},"Num Lock","/","*","-"],
[{c:"#888888",a:7,w:1.5},"",{c:"#cccccc",t:"#ff0000",f:6},"2","1","1","2",{t:"#ff0000\n\n\n\n\n\n\n\n\n#ff00ff\n#0000ff",a:4,fa:[0,0,0,0,0,0,2,0,0,0,2]},"\n\n\n\n\n\n2\n\n\n3\n1",{t:"#ff00ff",a:7},"5",{t:"#ff0000"},"3","1","1","2",{t:"#ff0000\n\n\n\n\n\n\n\n\n#ff00ff\n#0000ff",a:4},"\n\n\n\n\n\n1\n\n\n2\n1","\n\n\n\n\n\n1\n\n\n3\n2",{t:"#ff0000\n\n\n\n#000000\n\n\n\n\n#ff00ff\n#0000ff",w:1.5},"\n\n\n\n(ANSI)\n\n1\n\n\n5\n4",{x:0.25,t:"#000000",f:3},"Delete","End","PgDn",{x:0.25},"7\nHome","8\n↑","9\nPgUp",{h:2},"+"],
[{c:"#888888",a:7,w:1.75},"",{c:"#339933"},"","","","",{c:"#cccccc",t:"#0000ff",f:6},"2","2",{c:"#339933",t:"#000000",f:3},"","","","",{c:"#cccccc",t:"#0000ff",f:6},"1",{t:"#0000ff\n\n\n\n#000000"},"3\n\n\n\n(ISO)",{c:"#888888",t:"#000000",f:3,w:1.25},"",{x:3.5,c:"#cccccc",a:4},"4\n←","5","6\n→"],
[{c:"#888888",a:7,w:1.25},"",{c:"#cccccc",t:"#ff0000\n\n\n\n#000000",f:6},"1\n\n\n\n(ISO)",{t:"#ff0000"},"2","2","2","1",{t:"#ff00ff"},"3",{t:"#ff0000"},"1","1","2","2","2",{c:"#888888",t:"#000000",f:3,w:2.75},"",{x:1.25,c:"#cccccc",a:4},"↑",{x:1.25},"1\nEnd","2\n↓","3\nPgDn",{h:2},"Enter"],
[{c:"#888888",a:7,w:1.25},"",{w:1.25},"",{w:1.25},"",{c:"#339933",w:6.25},"",{c:"#888888",w:1.25},"",{w:1.25},"",{w:1.25},"",{w:1.25},"",{x:0.25,c:"#cccccc",a:4},"←","↓","→",{x:0.25,w:2},"0\nIns",".\nDel"]
